Stereo resolution
1280 1024

Camera matrix (Cam 1)
1758.626813 0.000000 647.502284
0.000000 1761.565376 499.163817
0.000000 0.000000 1.000000
Distortion coefficients (Cam 1)
-0.131223 0.274557 -0.000856 0.001538 0.000000

Camera matrix (Cam 2)
1772.785222 0.000000 625.482880
0.000000 1768.036569 527.113368
0.000000 0.000000 1.000000
Distortion coefficients (Cam 2)
-0.089395 0.012005 0.000323 -0.000331 0.000000

Rotation matrix
0.972622 0.000759 0.232394
-0.000427 0.999999 -0.001480
-0.232395 0.001340 0.972621
Translation vector
-354.232645 -0.401327 40.646610

Essential matrix
0.110610 -40.647100 -0.330185
-42.787958 0.505611 353.980011
0.541488 -354.231920 0.617508

Fundmental matrix
-0.000000 0.000001 -0.000472
0.000001 -0.000000 -0.015686
-0.000566 0.014485 1.000000