Stereo resolution
1280 1024

Camera matrix (Cam 1)
1745.614592 0.000000 603.399682
0.000000 1743.604730 479.978394
0.000000 0.000000 1.000000
Distortion coefficients (Cam 1)
-0.151990 0.365107 0.000496 -0.000135 0.000000

Camera matrix (Cam 2)
1737.570344 0.000000 623.162918
0.000000 1737.929733 493.521893
0.000000 0.000000 1.000000
Distortion coefficients (Cam 2)
-0.128840 0.372950 -0.000795 -0.002196 0.000000

Rotation matrix
0.977576 0.011740 0.210256
-0.014173 0.999849 0.010069
-0.210106 -0.012823 0.977595
Translation vector
-354.363407 1.651933 42.031405

Essential matrix
0.248646 -42.046235 1.191714
-33.364824 -4.050569 355.261094
3.407633 -354.329241 -3.915354

Fundmental matrix
-0.000000 0.000001 -0.000440
0.000001 0.000000 -0.012770
-0.000442 0.011697 1.000000