Stereo resolution
1280 1024

Camera matrix (Cam 1)
1738.232607 0.000000 584.023723
0.000000 1732.857899 479.524792
0.000000 0.000000 1.000000
Distortion coefficients (Cam 1)
-0.109521 0.172099 -0.000507 -0.005300 0.000000

Camera matrix (Cam 2)
1758.384496 0.000000 626.417231
0.000000 1761.522929 488.723737
0.000000 0.000000 1.000000
Distortion coefficients (Cam 2)
-0.119064 0.183583 -0.000509 -0.004839 0.000000

Rotation matrix
0.955153 0.014510 0.295758
-0.017527 0.999818 0.007553
-0.295594 -0.012398 0.955233
Translation vector
-712.564525 9.571210 116.350877

Essential matrix
-0.789874 -116.448349 8.263942
-99.497140 -7.146181 715.076905
3.347392 -712.573615 -8.212743

Fundmental matrix
0.000000 0.000001 -0.000664
0.000001 0.000000 -0.012212
-0.000515 0.011068 1.000000